<svg xmlns="http://www.w3.org/2000/svg" width="18.313" height="18.313" viewBox="0 0 18.313 18.313">
  <path id="message" d="M7.63,9.92H4.578V9.156H7.63ZM9.4,6.648l2.519,2.517L8.584,9.92Zm8.914-3.863L12.767,8.4l-2.6-2.6L15.717.19Zm-4.578,6.8v.745c0,3.134-4.578,1.875-4.578,1.875s1.158,4.578-2.013,4.578H1.526V1.526H12.251L13.76,0H0V18.313H7.775c2.413,0,7.486-5.511,7.486-7.336V8.045L13.735,9.588Z" fill="#777"/>
</svg>
