<svg id="profile" xmlns="http://www.w3.org/2000/svg" width="25.577" height="25.577" viewBox="0 0 25.577 25.577">
  <path id="Path_9" data-name="Path 9" d="M0,0H25.577V25.577H0Z" fill="none"/>
  <path id="Path_10" data-name="Path 10" d="M21.051,23.38H18.92V21.248a3.2,3.2,0,0,0-3.2-3.2H9.328a3.2,3.2,0,0,0-3.2,3.2V23.38H4V21.248A5.328,5.328,0,0,1,9.328,15.92h6.394a5.328,5.328,0,0,1,5.328,5.328Zm-8.526-9.591A6.394,6.394,0,1,1,18.92,7.394,6.394,6.394,0,0,1,12.526,13.788Zm0-2.131A4.263,4.263,0,1,0,8.263,7.394,4.263,4.263,0,0,0,12.526,11.657Z" transform="translate(0.263 0.066)" fill="rgba(255,244,223,0.49)" stroke="#2e2d33" stroke-width="0.6"/>
</svg>
